[gd_scene load_steps=3 format=2]

[ext_resource path="res://assets/fonts/set_timer_digits.tres" type="DynamicFont" id=1]

[sub_resource type="RectangleShape2D" id=1]
extents = Vector2( 80, 17.5 )

[node name="number_" type="Control"]
margin_right = 40.0
margin_bottom = 41.0
__meta__ = {
"_edit_use_anchors_": false
}

[node name="Panel" type="Panel" parent="."]
self_modulate = Color( 1, 1, 1, 0.352941 )
margin_right = 180.0
margin_bottom = 100.0
mouse_filter = 2
__meta__ = {
"_edit_use_anchors_": false
}

[node name="Area2D" type="Area2D" parent="Panel"]
position = Vector2( 2, 4 )

[node name="CollisionShape2D" type="CollisionShape2D" parent="Panel/Area2D"]
position = Vector2( 89, 42.5 )
scale = Vector2( 1, 0.84 )
shape = SubResource( 1 )

[node name="Node2D" type="Node2D" parent="Panel"]
z_index = 1

[node name="Label" type="Label" parent="Panel/Node2D"]
margin_left = 1.0
margin_top = -15.0
margin_right = 180.0
margin_bottom = 124.0
custom_fonts/font = ExtResource( 1 )
text = "60"
align = 1
valign = 1
__meta__ = {
"_edit_use_anchors_": false
}
