{
"first_run": true,
"is_start": false,
"long_ding": "ding_long_01_Freesound_JohnsonBrandEditing.mp3",
"mode": "custom",
"short_break": 3,
"long_break": 900,
"short_ding": "ding_short_01_Freesound_JohnsonBrandEditing.mp3",
"time_left": 6,
"max_tags": 50,
"user_id": 1,
"custom_tomato_time": 25
}