[gd_resource type="DynamicFont" load_steps=2 format=2]

[ext_resource path="res://assets/fonts/FiraCode-Retina.ttf" type="DynamicFontData" id=1]

[resource]
size = 51
outline_size = 5
outline_color = Color( 0.537255, 0, 0, 1 )
use_mipmaps = true
use_filter = true
extra_spacing_char = 3
font_data = ExtResource( 1 )
