[gd_resource type="DynamicFont" load_steps=2 format=2]

[ext_resource path="res://assets/fonts/FiraCode-Retina.ttf" type="DynamicFontData" id=1]

[resource]
size = 62
outline_size = 3
outline_color = Color( 0.227451, 0.188235, 0.898039, 0.329412 )
use_mipmaps = true
use_filter = true
font_data = ExtResource( 1 )
