[gd_resource type="DynamicFont" load_steps=2 format=2]

[ext_resource path="res://assets/fonts/FiraCode-Retina.ttf" type="DynamicFontData" id=1]

[resource]
size = 100
outline_size = 4
outline_color = Color( 0, 0, 0, 1 )
use_mipmaps = true
use_filter = true
font_data = ExtResource( 1 )
